﻿{
  "ProviderId": "Microsoft.VisualStudio.ConnectedService.Wcf",
  "Version": "15.0.30730.948",
  "ExtendedData": {
    "inputs": [
      "http://pgonline-dev.com/services/api/IMoneyAccount.svc?wsdl"
    ],
    "collectionTypes": [
      "System.Array",
      "System.Collections.Generic.Dictionary`2"
    ],
    "namespaceMappings": [
      "*, Septa.AloVoip.Agent.PgMoneyAccountService"
    ],
    "references": [
      "AsterNET.NetStandard, {AsterNET.NetStandard, 2.2.0}",
      "AutoMapper, {AutoMapper, 9.0.0}",
      "AutoMapper.Extensions.Microsoft.DependencyInjection, {AutoMapper.Extensions.Microsoft.DependencyInjection, 7.0.0}",
      "BouncyCastle.Crypto, {BouncyCastle.NetCore, 1.8.3}",
      "C:\\Users\\m.bigdeli\\Desktop\\cqrsev-master\\cqrsev-master\\src\\Agent.Domain\\bin\\Debug\\netcoreapp3.0\\Agent.Domain.Core.dll",
      "C:\\Users\\m.bigdeli\\Desktop\\cqrsev-master\\cqrsev-master\\src\\Agent.Domain\\bin\\Debug\\netcoreapp3.0\\Agent.Infra.CrossCutting.Bus.dll",
      "C:\\Users\\m.bigdeli\\Desktop\\cqrsev-master\\cqrsev-master\\src\\Agent.Domain\\bin\\Debug\\netcoreapp3.0\\Agent.Infra.TelephonyServer.dll",
      "EntityFramework, {EntityFramework, 6.3.0}",
      "EntityFramework.SqlServer, {EntityFramework, 6.3.0}",
      "FarsiToolbox, {Majid.FarsiToolbox, 1.0.0}",
      "FluentValidation, {FluentValidation, 8.5.1}",
      "Google.Protobuf, {Google.Protobuf, 3.6.1}",
      "Humanizer, {Humanizer.Core, 2.7.9}",
      "MediatR, {MediatR, 7.0.0}",
      "Microsoft.AspNetCore.Cryptography.Internal, {Microsoft.AspNetCore.Cryptography.Internal, 3.0.0}",
      "Microsoft.AspNetCore.Cryptography.KeyDerivation, {Microsoft.AspNetCore.Cryptography.KeyDerivation, 3.0.0}",
      "Microsoft.AspNetCore.Http.Abstractions, {Microsoft.AspNetCore.Http.Abstractions, 2.2.0}",
      "Microsoft.AspNetCore.Http.Features, {Microsoft.AspNetCore.Http.Features, 2.2.0}",
      "Microsoft.EntityFrameworkCore, {Microsoft.EntityFrameworkCore, 3.0.0}",
      "Microsoft.EntityFrameworkCore.Abstractions, {Microsoft.EntityFrameworkCore.Abstractions, 3.0.0}",
      "Microsoft.Extensions.Caching.Abstractions, {Microsoft.Extensions.Caching.Abstractions, 3.0.0}",
      "Microsoft.Extensions.Caching.Memory, {Microsoft.Extensions.Caching.Memory, 3.0.0}",
      "Microsoft.Extensions.Configuration, {Microsoft.Extensions.Configuration, 3.0.0}",
      "Microsoft.Extensions.Configuration.Abstractions, {Microsoft.Extensions.Configuration.Abstractions, 3.0.0}",
      "Microsoft.Extensions.Configuration.Binder, {Microsoft.Extensions.Configuration.Binder, 3.0.0}",
      "Microsoft.Extensions.DependencyInjection, {Microsoft.Extensions.DependencyInjection, 3.0.0}",
      "Microsoft.Extensions.DependencyInjection.Abstractions, {Microsoft.Extensions.DependencyInjection.Abstractions, 3.0.0}",
      "Microsoft.Extensions.Identity.Core, {Microsoft.Extensions.Identity.Core, 3.0.0}",
      "Microsoft.Extensions.Identity.Stores, {Microsoft.Extensions.Identity.Stores, 3.0.0}",
      "Microsoft.Extensions.Logging, {Microsoft.Extensions.Logging, 3.0.0}",
      "Microsoft.Extensions.Logging.Abstractions, {Microsoft.Extensions.Logging.Abstractions, 3.0.0}",
      "Microsoft.Extensions.Options, {Microsoft.Extensions.Options, 3.0.0}",
      "Microsoft.Extensions.Primitives, {Microsoft.Extensions.Primitives, 3.0.0}",
      "Microsoft.Win32.Primitives, {Microsoft.Win32.Primitives, 4.3.0}",
      "MySql.Data, {MySql.Data, 8.0.18}",
      "Newtonsoft.Json, {Newtonsoft.Json, 12.0.2}",
      "Renci.SshNet, {SSH.NET, 2016.1.0}",
      "RestSharp, {RestSharp, 106.6.10}",
      "Septa.PayamGostarApiClient, {Septa.NetStandard.PayamGostarApiClient, 1.0.0}",
      "Serilog, {Serilog, 2.9.0}",
      "Serilog.Enrichers.Thread, {Serilog.Enrichers.Thread, 3.1.0}",
      "Serilog.Settings.AppSettings, {Serilog.Settings.AppSettings, 2.2.2}",
      "SshNet.Security.Cryptography, {SshNet.Security.Cryptography, 1.2.0}",
      "System.AppContext, {System.AppContext, 4.3.0}",
      "System.CodeDom, {System.CodeDom, 4.6.0}",
      "System.Collections, {System.Collections, 4.3.0}",
      "System.Collections.Concurrent, {System.Collections.Concurrent, 4.3.0}",
      "System.Collections.Immutable, {System.Collections.Immutable, 1.6.0}",
      "System.ComponentModel, {System.ComponentModel, 4.3.0}",
      "System.ComponentModel.Annotations, {System.ComponentModel.Annotations, 4.6.0}",
      "System.Configuration.ConfigurationManager, {System.Configuration.ConfigurationManager, 4.6.0}",
      "System.Console, {System.Console, 4.3.0}",
      "System.Data.SqlClient, {System.Data.SqlClient, 4.7.0}",
      "System.Diagnostics.Debug, {System.Diagnostics.Debug, 4.3.0}",
      "System.Diagnostics.DiagnosticSource, {System.Diagnostics.DiagnosticSource, 4.6.0}",
      "System.Diagnostics.Tools, {System.Diagnostics.Tools, 4.3.0}",
      "System.Diagnostics.TraceSource, {System.Diagnostics.TraceSource, 4.0.0}",
      "System.Diagnostics.Tracing, {System.Diagnostics.Tracing, 4.3.0}",
      "System.Globalization, {System.Globalization, 4.3.0}",
      "System.Globalization.Calendars, {System.Globalization.Calendars, 4.3.0}",
      "System.IO, {System.IO, 4.3.0}",
      "System.IO.Compression, {System.IO.Compression, 4.3.0}",
      "System.IO.Compression.ZipFile, {System.IO.Compression.ZipFile, 4.3.0}",
      "System.IO.FileSystem, {System.IO.FileSystem, 4.3.0}",
      "System.IO.FileSystem.Primitives, {System.IO.FileSystem.Primitives, 4.3.0}",
      "System.Linq, {System.Linq, 4.3.0}",
      "System.Linq.Expressions, {System.Linq.Expressions, 4.3.0}",
      "System.Net.Http, {System.Net.Http, 4.3.0}",
      "System.Net.NameResolution, {System.Net.NameResolution, 4.0.0}",
      "System.Net.Primitives, {System.Net.Primitives, 4.3.0}",
      "System.Net.Sockets, {System.Net.Sockets, 4.3.0}",
      "System.ObjectModel, {System.ObjectModel, 4.3.0}",
      "System.Reflection, {System.Reflection, 4.3.0}",
      "System.Reflection.DispatchProxy, {System.Reflection.DispatchProxy, 4.5.0}",
      "System.Reflection.Emit, {System.Reflection.Emit, 4.3.0}",
      "System.Reflection.Emit.ILGeneration, {System.Reflection.Emit.ILGeneration, 4.3.0}",
      "System.Reflection.Extensions, {System.Reflection.Extensions, 4.3.0}",
      "System.Reflection.Primitives, {System.Reflection.Primitives, 4.3.0}",
      "System.Reflection.TypeExtensions, {System.Reflection.TypeExtensions, 4.3.0}",
      "System.Resources.Extensions, {System.Resources.Extensions, 4.6.0-preview8.19405.3}",
      "System.Resources.ResourceManager, {System.Resources.ResourceManager, 4.3.0}",
      "System.Runtime, {System.Runtime, 4.3.0}",
      "System.Runtime.Extensions, {System.Runtime.Extensions, 4.3.0}",
      "System.Runtime.Handles, {System.Runtime.Handles, 4.3.0}",
      "System.Runtime.InteropServices, {System.Runtime.InteropServices, 4.3.0}",
      "System.Runtime.InteropServices.RuntimeInformation, {System.Runtime.InteropServices.RuntimeInformation, 4.3.0}",
      "System.Runtime.Numerics, {System.Runtime.Numerics, 4.3.0}",
      "System.Security.AccessControl, {System.Security.AccessControl, 4.6.0}",
      "System.Security.Claims, {System.Security.Claims, 4.3.0}",
      "System.Security.Cryptography.Algorithms, {System.Security.Cryptography.Algorithms, 4.3.0}",
      "System.Security.Cryptography.Encoding, {System.Security.Cryptography.Encoding, 4.3.0}",
      "System.Security.Cryptography.Primitives, {System.Security.Cryptography.Primitives, 4.3.0}",
      "System.Security.Cryptography.X509Certificates, {System.Security.Cryptography.X509Certificates, 4.3.0}",
      "System.Security.Cryptography.Xml, {System.Security.Cryptography.Xml, 4.5.0}",
      "System.Security.Permissions, {System.Security.Permissions, 4.6.0}",
      "System.Security.Principal, {System.Security.Principal, 4.3.0}",
      "System.Security.Principal.Windows, {System.Security.Principal.Windows, 4.6.0}",
      "System.ServiceModel, {System.ServiceModel.Primitives, 4.6.0}",
      "System.ServiceModel.Duplex, {System.ServiceModel.Duplex, 4.6.0}",
      "System.ServiceModel.Http, {System.ServiceModel.Http, 4.6.0}",
      "System.ServiceModel.NetTcp, {System.ServiceModel.NetTcp, 4.6.0}",
      "System.ServiceModel.Primitives, {System.ServiceModel.Primitives, 4.6.0}",
      "System.ServiceModel.Security, {System.ServiceModel.Security, 4.6.0}",
      "System.Text.Encoding, {System.Text.Encoding, 4.3.0}",
      "System.Text.Encoding.CodePages, {System.Text.Encoding.CodePages, 4.4.0}",
      "System.Text.Encoding.Extensions, {System.Text.Encoding.Extensions, 4.3.0}",
      "System.Text.Encodings.Web, {System.Text.Encodings.Web, 4.5.0}",
      "System.Text.RegularExpressions, {System.Text.RegularExpressions, 4.3.0}",
      "System.Threading, {System.Threading, 4.3.0}",
      "System.Threading.Tasks, {System.Threading.Tasks, 4.3.0}",
      "System.Threading.Thread, {System.Threading.Thread, 4.0.0}",
      "System.Threading.ThreadPool, {System.Threading.ThreadPool, 4.0.10}",
      "System.Threading.Timer, {System.Threading.Timer, 4.3.0}",
      "System.Windows.Extensions, {System.Windows.Extensions, 4.6.0}",
      "System.Xml.ReaderWriter, {System.Xml.ReaderWriter, 4.3.0}",
      "System.Xml.XDocument, {System.Xml.XDocument, 4.3.0}",
      "System.Xml.XmlDocument, {System.Xml.XmlDocument, 4.0.1}",
      "System.Xml.XPath, {System.Xml.XPath, 4.0.1}",
      "System.Xml.XPath.XmlDocument, {System.Xml.XPath.XmlDocument, 4.0.1}",
      "WinSCPnet, {WinSCP, 5.15.5}"
    ],
    "sync": true,
    "targetFramework": "netcoreapp3.0",
    "typeReuseMode": "All"
  }
}